%YAML 1.1
%TAG !u! tag:unity3d.com,2011:
--- !u!114 &11400000
MonoBehaviour:
  m_ObjectHideFlags: 0
  m_CorrespondingSourceObject: {fileID: 0}
  m_PrefabInstance: {fileID: 0}
  m_PrefabAsset: {fileID: 0}
  m_GameObject: {fileID: 0}
  m_Enabled: 1
  m_EditorHideFlags: 0
  m_Script: {fileID: 11500000, guid: ebc0ba1b5ef6b4a6b9dd53d7eadfea16, type: 3}
  m_Name: AppLovinSettings
  m_EditorClassIdentifier: 
  qualityServiceEnabled: 1
  sdkKey: Wbl6_lWhN3Hoy5kL_UNgTb6Ed7o69yD8-mFOzFG68AmdgawolWGk0K2W_GHiai_D5N5pE_DA7MSfJoJZ_oOm1G
  consentFlowEnabled: 1
  consentFlowPrivacyPolicyUrl: https://www.ysocorp.com/privacy-policy
  consentFlowTermsOfServiceUrl: 
  userTrackingUsageDescriptionEn: This only uses device info for less annoying, more
    relevant ads
  userTrackingUsageLocalizationEnabled: 1
  userTrackingUsageDescriptionDe: "\\\"Erlauben\\\" dr\xFCcken benutzt Ger\xE4tinformationen
    f\xFCr relevantere Werbeinhalte"
  userTrackingUsageDescriptionEs: "Presionando \\\"Permitir\\\", se usa la informaci\xF3n
    del dispositivo para obtener contenido publicitario m\xE1s relevante"
  userTrackingUsageDescriptionFr: "\\\"Autoriser\\\" permet d'utiliser les infos
    du t\xE9l\xE9phone pour afficher des contenus publicitaires plus pertinents"
  userTrackingUsageDescriptionJa: "\\\"\u8A31\u53EF\\\"\u3092\u30AF\u30EA\u30C3\u30AF\u3059\u308B\u3053\u3068\u3067\u3001\u30C7\u30D0\u30A4\u30B9\u60C5\u5831\u3092\u5143\u306B\u3088\u308A\u6700\u9069\u306A\u5E83\u544A\u3092\u8868\u793A\u3059\u308B\u3053\u3068\u304C\u3067\u304D\u307E\u3059"
  userTrackingUsageDescriptionKo: "\\\"\uD5C8\uC6A9\\\"\uC744 \uB204\uB974\uBA74
    \uB354 \uAD00\uB828\uC131 \uB192\uC740 \uAD11\uACE0 \uCF58\uD150\uCE20\uB97C
    \uC81C\uACF5\uD558\uAE30 \uC704\uD574 \uAE30\uAE30 \uC815\uBCF4\uAC00 \uC0AC\uC6A9\uB429\uB2C8\uB2E4"
  userTrackingUsageDescriptionZhHans: "\u70B9\u51FB\\\"\u5141\u8BB8\\\"\u4EE5\u4F7F\u7528\u8BBE\u5907\u4FE1\u606F\u83B7\u5F97\u66F4\u52A0\u76F8\u5173\u7684\u5E7F\u544A\u5185\u5BB9"
  userTrackingUsageDescriptionZhHant: "\u9EDE\u64CA\\\"\u5141\u8A31\\\"\u4EE5\u4F7F\u7528\u8A2D\u5099\u4FE1\u606F\u7372\u5F97\u66F4\u52A0\u76F8\u95DC\u7684\u5EE3\u544A\u5167\u5BB9"
  adMobAndroidAppId: 
  adMobIosAppId: 
